﻿<?xml version="1.0" encoding="utf-8"?>
<!DOCTYPE svg PUBLIC "-//W3C//DTD SVG 1.1//EN" "http://www.w3.org/Graphics/SVG/1.1/DTD/svg11.dtd">
<svg xmlns="http://www.w3.org/2000/svg" xmlns:xlink="http://www.w3.org/1999/xlink" version="1.1" baseProfile="full" width="199.133" height="185.797" viewBox="0 0 199.13 185.80" enable-background="new 0 0 199.13 185.80" xml:space="preserve">
	<ellipse fill="#FFFFFF" fill-opacity="1" stroke-width="9.99875" stroke-linejoin="round" stroke="#FFC800" stroke-opacity="1" cx="99.5666" cy="92.8984" rx="94.5672" ry="87.899"/>
	<text transform="matrix(0.9999998807907103 0.0000000000000000 0.0000000000000000 0.9999998807907103 34.00 127.00)" xml:space="preserve">
		<tspan style=" font-family:Segoe UI; font-size:78.233238pt;" letter-spacing="0.00em" fill="#000000" fill-opacity="1" stroke-width="0.999875" stroke-linejoin="round">H</tspan>
		<tspan style=" font-family:Segoe UI; font-size:78.233238pt;" letter-spacing="0.00em" fill="#000000" fill-opacity="1" stroke-width="0.999875" stroke-linejoin="round">A</tspan>
	</text>
</svg>
